{
  "orbitsScale": 149597870700,
  "radiusScale": 6,
  "massScale": 24,
  "gravitationalConstant":0.0000000000667408,

  "systemId":0,
  "mass":1988800,
  "name":"Sun",
  "sunRadius":69.7,
  "originX":0,
  "originY":0,
  "soi":100,
  "color":"DEDB10",
  "planets":
  [
    {
      "planetId":0,
      "mass":5.97237,
      "name":"Earth",
      "orbitX":1.017,
      "orbitY":0.98327,
      "orbitColor":"73A9C2",
      "planetRadius":6.371,
      "soi":924,
      "atmosphereRadius":1.01884,
      "orbitAngle":114.20783,
      "moons":
      [
        {
          "planetId":0,
          "mass":0.07347,
          "name":"Moon",
          "orbitX":0.00242383129,
          "orbitY":0.00270993161,
          "orbitColor":"D3D3D3",
          "planetRadius":1.739283,
          "soi":66.1,
          "atmosphereRadius":0.0,
          "orbitAngle":23
        }
      ]
    }
  ]
}
